<?xml version="1.0" encoding="UTF-8"?>
<svg width="512px" height="512px" viewBox="0 0 512 512" version="1.1" xmlns="http://www.w3.org/2000/svg" xmlns:xlink="http://www.w3.org/1999/xlink">
    <!-- Generator: Sketch 50.2 (55047) - http://www.bohemiancoding.com/sketch -->
    <title>bug</title>
    <desc>Created with Sketch.</desc>
    <defs></defs>
    <g id="Page-1" stroke="none" stroke-width="1" fill="none" fill-rule="evenodd">
        <g id="bug" fill-rule="nonzero">
            <path d="M82,462.011 L50,462.011 C27.909,462.011 10,444.102 10,422.011 L10,50.007 C10,27.916 27.909,10.007 50,10.007 L462,10.007 C484.091,10.007 502,27.916 502,50.007 L502,422.011 C502,444.102 484.091,462.011 462,462.011 L421,462.011 L82,462.011 Z" id="Shape" fill="#FFFFFF"></path>
            <path d="M462,10.007 L50,10.007 C27.909,10.007 10,27.916 10,50.007 L10,82.007 L502,82.007 L502,50.007 C502,27.915 484.091,10.007 462,10.007 Z" id="Shape" fill="#00C3B9"></path>
            <path d="M21.004,82.007 L496,82.007" id="Shape" fill="#231F20"></path>
            <circle id="Oval" fill="#FFFFFF" cx="253.42" cy="253.42" r="130.58"></circle>
            <path d="M492.191,492.202 C479.108,505.285 457.897,505.285 444.815,492.202 L346.183,393.57 L393.559,346.194 L492.191,444.826 C505.274,457.908 505.274,479.119 492.191,492.202 Z" id="Shape" fill="#00C3B9"></path>
            <path d="M254.803,324.301 L252.371,324.301 C225.025,324.301 202.856,302.133 202.856,274.786 L202.856,261.218 C202.856,233.872 225.024,211.703 252.371,211.703 L254.803,211.703 C282.149,211.703 304.318,233.871 304.318,261.218 L304.318,274.786 C304.317,302.132 282.149,324.301 254.803,324.301 Z" id="Shape" fill="#00C3B9"></path>
            <path d="M272.471,211.703 L234.701,211.703 L234.701,201.538 C234.701,191.907 242.509,184.099 252.14,184.099 L255.032,184.099 C264.663,184.099 272.471,191.907 272.471,201.538 L272.471,211.703 Z" id="Shape" fill="#4BB9F5"></path>
            <path d="M502,409.995 C507.523,409.995 512,405.518 512,399.995 L512,50.007 C512,22.437 489.57,0.007 462,0.007 L50,0.007 C22.43,0.007 0,22.437 0,50.007 L0,422.011 C0,449.581 22.43,472.011 50,472.011 L410.482,472.011 L437.744,499.273 C446.224,507.753 457.364,511.993 468.503,511.993 C479.642,511.993 490.782,507.753 499.262,499.273 C516.222,482.312 516.222,454.715 499.262,437.754 L400.63,339.122 C398.755,337.247 396.211,336.193 393.559,336.193 C390.907,336.193 388.363,337.247 386.488,339.122 L369.873,355.737 L359.598,345.462 C381.019,320.783 394,288.591 394,253.423 C394,222.851 384.354,193.78 366.104,169.355 C348.466,145.748 323.336,127.936 295.343,119.201 C290.072,117.556 284.463,120.496 282.818,125.768 C281.172,131.04 284.113,136.648 289.385,138.293 C339.996,154.086 374,200.354 374,253.423 C374,319.913 319.906,374.006 253.417,374.006 C186.928,374.006 132.834,319.912 132.834,253.423 C132.834,200.815 166.457,154.668 216.499,138.593 C221.757,136.904 224.651,131.272 222.962,126.013 C221.273,120.754 215.639,117.864 210.383,119.551 C182.261,128.585 158.058,145.964 140.391,169.811 C122.363,194.143 112.834,223.056 112.834,253.423 C112.834,330.941 175.899,394.006 253.417,394.006 C288.585,394.006 320.777,381.025 345.456,359.604 L355.731,369.879 L339.112,386.498 C335.207,390.403 335.207,396.735 339.112,400.641 L390.482,452.011 L50,452.011 C33.458,452.011 20,438.553 20,422.011 L20,91.956 C20.33,91.989 20.665,92.007 21.004,92.007 L492,92.007 L492,399.995 C492,405.518 496.477,409.995 502,409.995 Z M376.939,376.956 C376.941,376.954 376.942,376.953 376.944,376.951 C376.946,376.949 376.947,376.948 376.949,376.946 L393.56,360.335 L485.121,451.897 C494.284,461.06 494.284,475.968 485.121,485.13 C475.959,494.293 461.049,494.293 451.887,485.13 L388.203,421.447 L404.822,404.828 C408.727,400.923 408.727,394.591 404.822,390.685 C400.917,386.78 394.585,386.78 390.679,390.685 L374.06,407.304 L360.325,393.569 L376.939,376.956 Z M21.004,72.007 C20.665,72.007 20.33,72.025 20,72.058 L20,50.007 C20,33.465 33.458,20.007 50,20.007 L462,20.007 C478.542,20.007 492,33.465 492,50.007 L492,72.007 L21.004,72.007 Z" id="Shape" fill="#33678D"></path>
            <path d="M448,36.007 L222.065,36.007 C216.542,36.007 212.065,40.484 212.065,46.007 C212.065,51.53 216.542,56.007 222.065,56.007 L448,56.007 C453.523,56.007 458,51.53 458,46.007 C458,40.484 453.523,36.007 448,36.007 Z" id="Shape" fill="#33678D"></path>
            <path d="M104,36.007 C101.37,36.007 98.79,37.077 96.93,38.937 C95.07,40.797 94,43.377 94,46.007 C94,48.637 95.07,51.217 96.93,53.077 C98.79,54.937 101.37,56.007 104,56.007 C106.63,56.007 109.21,54.937 111.07,53.077 C112.93,51.217 114,48.637 114,46.007 C114,43.377 112.93,40.797 111.07,38.937 C109.21,37.077 106.63,36.007 104,36.007 Z" id="Shape" fill="#33678D"></path>
            <path d="M64,36.007 C61.37,36.007 58.79,37.077 56.93,38.937 C55.07,40.797 54,43.377 54,46.007 C54,48.637 55.07,51.217 56.93,53.077 C58.79,54.937 61.37,56.007 64,56.007 C66.63,56.007 69.21,54.937 71.07,53.077 C72.93,51.217 74,48.637 74,46.007 C74,43.377 72.93,40.797 71.07,38.937 C69.21,37.077 66.63,36.007 64,36.007 Z" id="Shape" fill="#33678D"></path>
            <path d="M144,36.007 C141.37,36.007 138.79,37.077 136.93,38.937 C135.07,40.797 134,43.377 134,46.007 C134,48.637 135.07,51.217 136.93,53.077 C138.79,54.937 141.37,56.007 144,56.007 C146.63,56.007 149.21,54.937 151.07,53.077 C152.93,51.217 154,48.637 154,46.007 C154,43.377 152.93,40.797 151.07,38.937 C149.21,37.077 146.63,36.007 144,36.007 Z" id="Shape" fill="#33678D"></path>
            <path d="M253.706,132.84 C253.721,132.84 253.736,132.84 253.751,132.84 C259.253,132.84 263.726,128.392 263.75,122.884 C263.774,117.362 259.317,112.864 253.794,112.84 L253.417,112.84 C247.894,112.84 243.417,117.317 243.417,122.84 C243.417,128.363 247.894,132.84 253.417,132.84 L253.706,132.84 Z" id="Shape" fill="#33678D"></path>
            <path d="M54,404.007 C54,409.53 58.477,414.007 64,414.007 L132.333,414.007 C137.856,414.007 142.333,409.53 142.333,404.007 C142.333,398.484 137.856,394.007 132.333,394.007 L64,394.007 C58.477,394.007 54,398.484 54,404.007 Z" id="Shape" fill="#33678D"></path>
            <path d="M108.069,354.007 L64,354.007 C58.477,354.007 54,358.484 54,364.007 C54,369.53 58.477,374.007 64,374.007 L108.069,374.007 C113.592,374.007 118.069,369.53 118.069,364.007 C118.069,358.484 113.592,354.007 108.069,354.007 Z" id="Shape" fill="#33678D"></path>
            <path d="M177.41,411.077 C179.27,409.217 180.33,406.637 180.33,404.007 C180.33,401.377 179.27,398.797 177.41,396.937 C175.54,395.077 172.97,394.007 170.33,394.007 C167.7,394.007 165.12,395.077 163.26,396.937 C161.4,398.797 160.33,401.377 160.33,404.007 C160.33,406.637 161.4,409.217 163.26,411.077 C165.12,412.937 167.7,414.007 170.33,414.007 C172.97,414.007 175.54,412.937 177.41,411.077 Z" id="Shape" fill="#33678D"></path>
            <path d="M448,118.007 L369.873,118.007 C364.35,118.007 359.873,122.484 359.873,128.007 C359.873,133.53 364.35,138.007 369.873,138.007 L448,138.007 C453.523,138.007 458,133.53 458,128.007 C458,122.484 453.523,118.007 448,118.007 Z" id="Shape" fill="#33678D"></path>
            <path d="M448,158.007 L409.25,158.007 C403.727,158.007 399.25,162.484 399.25,168.007 C399.25,173.53 403.727,178.007 409.25,178.007 L448,178.007 C453.523,178.007 458,173.53 458,168.007 C458,162.484 453.523,158.007 448,158.007 Z" id="Shape" fill="#33678D"></path>
            <path d="M255.032,174.099 L252.14,174.099 C237.01,174.099 224.701,186.408 224.701,201.538 L224.701,208.55 C215.375,213.47 207.51,220.79 201.928,229.689 L192.52,220.22 C188.627,216.302 182.295,216.282 178.378,220.175 C174.461,224.068 174.44,230.399 178.333,234.317 L193.929,250.014 C193.434,252.6 193.099,255.242 192.951,257.934 L177.452,257.934 C171.929,257.934 167.452,262.411 167.452,267.934 C167.452,273.457 171.929,277.934 177.452,277.934 L192.941,277.934 C193.083,280.654 193.421,283.321 193.919,285.933 L178.334,301.62 C174.441,305.538 174.462,311.87 178.379,315.762 C180.33,317.7 182.879,318.668 185.427,318.668 C187.997,318.668 190.567,317.683 192.521,315.716 L201.903,306.273 C212.432,323.087 231.112,334.3 252.372,334.3 L254.804,334.3 C275.975,334.3 294.587,323.179 305.139,306.481 L314.314,315.715 C316.269,317.682 318.838,318.667 321.408,318.667 C323.956,318.667 326.506,317.699 328.456,315.761 C332.373,311.868 332.394,305.537 328.501,301.619 L313.204,286.222 C313.728,283.54 314.079,280.798 314.229,278.001 L329.383,278.001 C334.906,278.001 339.383,273.524 339.383,268.001 C339.383,262.478 334.906,258.001 329.383,258.001 L314.229,258.001 C314.078,255.185 313.725,252.422 313.194,249.722 L328.502,234.315 C332.395,230.397 332.374,224.065 328.457,220.173 C324.539,216.28 318.207,216.301 314.315,220.218 L305.114,229.479 C299.54,220.675 291.727,213.429 282.474,208.548 L282.474,201.536 C282.471,186.408 270.162,174.099 255.032,174.099 Z M244.702,201.703 L244.702,201.538 C244.702,197.436 248.039,194.099 252.141,194.099 L255.033,194.099 C259.135,194.099 262.472,197.436 262.472,201.538 L262.472,201.703 L254.804,201.703 L252.372,201.703 L244.702,201.703 Z M294.317,261.218 L294.317,274.786 C294.317,296.574 276.591,314.3 254.802,314.3 L252.37,314.3 C230.581,314.3 212.855,296.574 212.855,274.786 L212.855,261.218 C212.855,239.429 230.581,221.703 252.37,221.703 L254.802,221.703 C276.591,221.703 294.317,239.429 294.317,261.218 Z" id="Shape" fill="#33678D"></path>
        </g>
    </g>
</svg>