<?xml version="1.0" encoding="UTF-8"?>
<svg width="90px" height="66px" viewBox="0 0 90 66" version="1.1" xmlns="http://www.w3.org/2000/svg" xmlns:xlink="http://www.w3.org/1999/xlink">
    <!-- Generator: Sketch 50.2 (55047) - http://www.bohemiancoding.com/sketch -->
    <title>163@3x</title>
    <desc>Created with Sketch.</desc>
    <defs></defs>
    <g id="Page-1" stroke="none" stroke-width="1" fill="none" fill-rule="evenodd">
        <g id="170-web-icons-webperts" transform="translate(-1155.000000, -111.000000)" fill="#46a5a7" fill-rule="nonzero">
            <path d="M1233.762,111 L1166.238,111 C1160.042,111 1155,116.050877 1155,122.258788 L1155,165.741212 C1155,171.949123 1160.042,177 1166.238,177 L1233.761,177 C1239.958,177 1245,171.949123 1245,165.741212 L1245,122.258788 C1245,116.050877 1239.958,111 1233.762,111 Z M1166.238,114.188604 L1233.761,114.188604 C1235.347,114.188604 1236.822,114.655425 1238.069,115.451824 L1205.921,145.868284 C1202.655,148.956712 1197.344,148.956712 1194.08,145.868284 L1161.931,115.451824 C1163.178,114.655425 1164.653,114.188604 1166.238,114.188604 Z M1233.761,173.810394 L1166.238,173.810394 C1161.797,173.810394 1158.183,170.191033 1158.183,165.741212 L1158.183,122.258788 C1158.183,120.548783 1158.719,118.966001 1159.627,117.659705 L1191.895,148.186358 C1194.128,150.301075 1197.064,151.358934 1199.999,151.358934 C1202.934,151.358934 1205.871,150.301075 1208.104,148.186358 L1240.371,117.659705 C1241.279,118.967003 1241.815,120.548783 1241.815,122.258788 L1241.815,165.741212 C1241.816,170.190031 1238.204,173.810394 1233.761,173.810394 Z" id="163"></path>
        </g>
    </g>
</svg>