<?xml version="1.0" encoding="UTF-8"?>
<svg width="404px" height="512px" viewBox="0 0 404 512" version="1.1" xmlns="http://www.w3.org/2000/svg" xmlns:xlink="http://www.w3.org/1999/xlink">
    <!-- Generator: Sketch 50.2 (55047) - http://www.bohemiancoding.com/sketch -->
    <title>document</title>
    <desc>Created with Sketch.</desc>
    <defs></defs>
    <g id="Page-1" stroke="none" stroke-width="1" fill="none" fill-rule="evenodd">
        <g id="document" transform="translate(-1.000000, 0.000000)" fill-rule="nonzero">
            <path d="M121.255,50.001 L50.998,50.001 C28.907,50.001 10.998,67.91 10.998,90.001 L10.998,462.001 C10.998,484.092 28.907,502.001 50.998,502.001 L354.998,502.001 C377.089,502.001 394.998,484.092 394.998,462.001 L394.998,90.001 C394.998,67.91 377.089,50.001 354.998,50.001 L282.84,50.001 C282.84,50.001 121.255,50.001 121.255,50.001 Z" id="Shape" fill="#00C3B9"></path>
            <path d="M82.998,98.001 L322.998,98.001 C334.044,98.001 342.998,106.955 342.998,118.001 L342.998,428.001 C342.998,439.047 334.044,448.001 322.998,448.001 L82.998,448.001 C71.952,448.001 62.998,439.047 62.998,428.001 L62.998,118.001 C62.998,106.956 71.952,98.001 82.998,98.001 Z" id="Shape" fill="#FFFFFF"></path>
            <path d="M256.267,42.001 L235.568,42.001 C235.255,24.276 220.798,10 202.998,10 C185.198,10 170.741,24.275 170.428,42.001 L149.729,42.001 C134.349,42.001 121.881,54.469 121.881,69.849 L121.881,98.001 L284.115,98.001 L284.115,69.849 C284.115,54.469 271.647,42.001 256.267,42.001 Z" id="Shape" fill="#FFFFFF"></path>
            <rect id="Rectangle-path" fill="#00C3B9" x="106.999" y="154" width="191.99" height="76"></rect>
            <path d="M395.001,294.125 C392.361,294.125 389.791,295.194 387.921,297.055 C386.061,298.914 385.001,301.494 385.001,304.125 C385.001,306.755 386.061,309.335 387.921,311.194 C389.791,313.064 392.361,314.125 395.001,314.125 C397.631,314.125 400.211,313.064 402.071,311.194 C403.93,309.335 405.001,306.755 405.001,304.125 C405.001,301.494 403.931,298.914 402.071,297.055 C400.211,295.194 397.631,294.125 395.001,294.125 Z" id="Shape" fill="#33678D"></path>
            <path d="M394.998,340.335 C389.476,340.335 384.998,344.813 384.998,350.335 L384.998,462.001 C384.998,478.543 371.54,492.001 354.998,492.001 L50.998,492.001 C34.456,492.001 20.998,478.543 20.998,462.001 L20.998,90.001 C20.998,73.459 34.456,60.001 50.998,60.001 L113.188,60.001 C112.34,63.143 111.88,66.443 111.88,69.85 L111.88,88.001 L82.997,88.001 C66.455,88.001 52.997,101.459 52.997,118.001 L52.997,428.001 C52.997,444.543 66.455,458.001 82.997,458.001 L322.997,458.001 C339.539,458.001 352.997,444.543 352.997,428.001 L352.997,118.001 C352.997,101.459 339.539,88.001 322.997,88.001 L294.114,88.001 L294.114,69.85 C294.114,66.444 293.654,63.144 292.806,60.001 L354.996,60.001 C371.538,60.001 384.996,73.459 384.996,90.001 L384.996,253.999 C384.996,259.521 389.474,263.999 394.996,263.999 C400.518,263.999 404.996,259.521 404.996,253.999 L404.996,90.001 C404.996,62.431 382.566,40.001 354.996,40.001 L279.495,40.001 C273.077,34.995 265.017,32.001 256.266,32.001 L244.226,32.001 C239.473,13.663 222.681,0 202.998,0 C183.315,0 166.523,13.663 161.769,32.001 L149.729,32.001 C140.978,32.001 132.917,34.995 126.5,40.001 L50.999,40.001 C23.429,40.001 0.999,62.431 0.999,90.001 L0.999,462.001 C0.999,489.571 23.429,512.001 50.999,512.001 L354.999,512.001 C382.569,512.001 404.999,489.571 404.999,462.001 L404.999,350.335 C404.998,344.813 400.52,340.335 394.998,340.335 Z M332.998,118.001 L332.998,428.001 C332.998,433.515 328.512,438.001 322.998,438.001 L82.998,438.001 C77.484,438.001 72.998,433.515 72.998,428.001 L72.998,118.001 C72.998,112.487 77.484,108.001 82.998,108.001 L322.998,108.001 C328.512,108.001 332.998,112.487 332.998,118.001 Z M170.429,52.001 C175.883,52.001 180.331,47.631 180.427,42.178 C180.643,29.948 190.768,20 202.998,20 C215.228,20 225.353,29.948 225.569,42.178 C225.665,47.631 230.113,52.001 235.567,52.001 L256.267,52.001 C266.108,52.001 274.115,60.008 274.115,69.85 L274.115,88.001 L131.881,88.001 L131.881,69.85 C131.881,60.008 139.888,52.001 149.729,52.001 L170.429,52.001 Z" id="Shape" fill="#33678D"></path>
            <path d="M203.001,164.005 C205.631,164.005 208.211,162.935 210.071,161.074 C211.93,159.204 213.001,156.635 213.001,154.005 C213.001,151.364 211.931,148.795 210.071,146.925 C208.211,145.065 205.631,144.005 203.001,144.005 C200.361,144.005 197.781,145.065 195.931,146.925 C194.061,148.795 193.001,151.364 193.001,154.005 C193.001,156.635 194.061,159.215 195.931,161.074 C197.791,162.935 200.361,164.005 203.001,164.005 Z" id="Shape" fill="#33678D"></path>
            <path d="M235.998,154.001 C235.998,159.523 240.476,164.001 245.998,164.001 L288.992,164.001 L288.992,220.001 L117.005,220.001 L117.005,164.001 L158.665,164.001 C164.187,164.001 168.665,159.523 168.665,154.001 C168.665,148.479 164.187,144.001 158.665,144.001 L107.005,144.001 C101.483,144.001 97.005,148.479 97.005,154.001 L97.005,230.001 C97.005,235.523 101.483,240.001 107.005,240.001 L298.992,240.001 C304.514,240.001 308.992,235.523 308.992,230.001 L308.992,154.001 C308.992,148.479 304.514,144.001 298.992,144.001 L245.998,144.001 C240.476,144.001 235.998,148.479 235.998,154.001 Z" id="Shape" fill="#33678D"></path>
            <path d="M298.992,324.001 L226.992,324.001 C221.47,324.001 216.992,328.479 216.992,334.001 C216.992,339.523 221.47,344.001 226.992,344.001 L298.992,344.001 C304.514,344.001 308.992,339.523 308.992,334.001 C308.992,328.479 304.515,324.001 298.992,324.001 Z" id="Shape" fill="#33678D"></path>
            <path d="M298.992,268.001 L226.992,268.001 C221.47,268.001 216.992,272.479 216.992,278.001 C216.992,283.523 221.47,288.001 226.992,288.001 L298.992,288.001 C304.514,288.001 308.992,283.523 308.992,278.001 C308.992,272.479 304.515,268.001 298.992,268.001 Z" id="Shape" fill="#33678D"></path>
            <path d="M298.992,380.001 L226.992,380.001 C221.47,380.001 216.992,384.479 216.992,390.001 C216.992,395.523 221.47,400.001 226.992,400.001 L298.992,400.001 C304.514,400.001 308.992,395.523 308.992,390.001 C308.992,384.479 304.515,380.001 298.992,380.001 Z" id="Shape" fill="#33678D"></path>
            <path d="M179.005,324.001 L107.005,324.001 C101.483,324.001 97.005,328.479 97.005,334.001 C97.005,339.523 101.483,344.001 107.005,344.001 L179.005,344.001 C184.527,344.001 189.005,339.523 189.005,334.001 C189.005,328.479 184.527,324.001 179.005,324.001 Z" id="Shape" fill="#33678D"></path>
            <path d="M179.005,268.001 L107.005,268.001 C101.483,268.001 97.005,272.479 97.005,278.001 C97.005,283.523 101.483,288.001 107.005,288.001 L179.005,288.001 C184.527,288.001 189.005,283.523 189.005,278.001 C189.005,272.479 184.527,268.001 179.005,268.001 Z" id="Shape" fill="#33678D"></path>
            <path d="M179.005,380.001 L107.005,380.001 C101.483,380.001 97.005,384.479 97.005,390.001 C97.005,395.523 101.483,400.001 107.005,400.001 L179.005,400.001 C184.527,400.001 189.005,395.523 189.005,390.001 C189.005,384.479 184.527,380.001 179.005,380.001 Z" id="Shape" fill="#33678D"></path>
        </g>
    </g>
</svg>