<?xml version="1.0" encoding="UTF-8"?>
<svg width="62px" height="90px" viewBox="0 0 62 90" version="1.1" xmlns="http://www.w3.org/2000/svg" xmlns:xlink="http://www.w3.org/1999/xlink">
    <!-- Generator: Sketch 50.2 (55047) - http://www.bohemiancoding.com/sketch -->
    <title>35@3x</title>
    <desc>Created with Sketch.</desc>
    <defs></defs>
    <g id="Page-1" stroke="none" stroke-width="1" fill="none" fill-rule="evenodd">
        <g id="170-web-icons-webperts" transform="translate(-1481.000000, -1044.000000)" fill="#8e8e8e" fill-rule="nonzero">
            <g id="35" transform="translate(1481.000000, 1044.000000)">
                <path d="M16.531,70.708 L45.47,70.708 C49.007,70.708 51.884,67.829 51.884,64.293 L51.884,18.474 C51.884,14.936 49.007,12.058 45.47,12.058 L16.531,12.058 C12.993,12.058 10.116,14.936 10.116,18.474 L10.116,64.293 C10.116,67.829 12.993,70.708 16.531,70.708 Z M13.3,18.474 C13.3,16.691 14.749,15.243 16.531,15.243 L45.47,15.243 C47.252,15.243 48.7,16.691 48.7,18.474 L48.7,64.293 C48.7,66.075 47.252,67.523 45.47,67.523 L16.531,67.523 C14.748,67.523 13.3,66.075 13.3,64.293 L13.3,18.474 Z" id="Shape"></path>
                <circle id="Oval" cx="31" cy="78.762" r="3.858"></circle>
                <path d="M11.708,90 L50.293,90 C56.489,90 61.53,84.958 61.53,78.762 L61.53,11.238 C61.53,5.042 56.489,0 50.293,0 L11.708,0 C5.511,0 0.47,5.042 0.47,11.238 L0.47,78.761 C0.47,84.958 5.511,90 11.708,90 Z M3.653,11.238 C3.653,6.795 7.266,3.183 11.708,3.183 L50.293,3.183 C54.734,3.183 58.347,6.794 58.347,11.238 L58.347,78.761 C58.347,83.202 54.735,86.816 50.293,86.816 L11.708,86.816 C7.266,86.816 3.653,83.203 3.653,78.761 L3.653,11.238 Z" id="Shape"></path>
            </g>
        </g>
    </g>
</svg>